+--- [user] --------------------------------------------------------------+
| Username:         %-54s|
| Primary group:    %-54s|
| Credits:          %-54s|
| Created:          %-54s|
| Hidden:           %-54s|
| Suspended:        %-54s|
| Lastlog:          %-54s|
| Logins:           %-54s|
| Tagline:          %-54s|
| Permissions:      %-54s|
| Leech:            %-54s|
+-------------------------------------------------------------------------+
| Statistics        Upload          Download                              |
+-------------------------------------------------------------------------+
| Files             %-15s %-15s                       |
| Bytes             %-12s    %-12s                          |
| Avg. Speed        %-15s %-15s                       |
+-------------------------------------------------------------------------+
| Groups            Gadmin                                                |
+-------------------------------------------------------------------------+
| %-10s        %-5s                                                 |
+-------------------------------------------------------------------------+
| IP(s) (ident@host)                                                      |
+-------------------------------------------------------------------------+
| %-72s|
+------------------------------------------------------------ [cuftpd] ---+

